v 20130925 2
C 40000 40000 0 0 0 title-B.sym
C 54100 47700 1 0 0 connector5-2.sym
{
T 54800 50200 5 10 1 1 0 6 1
refdes=CONN3
T 54400 50150 5 10 0 0 0 0 1
device=CONNECTOR_5
T 54400 50350 5 10 0 0 0 0 1
footprint=usb-a-female-wurth-wr-com
T 54900 47700 5 10 1 1 0 0 1
comment=USB OUT
}
C 46600 50100 1 180 0 connector6-2.sym
{
T 45900 47200 5 10 1 1 180 6 1
refdes=CONN1
T 46300 47250 5 10 0 0 180 0 1
device=CONNECTOR_6
T 46300 47050 5 10 0 0 180 0 1
footprint=usb-a-micro-male
T 45100 49900 5 10 1 1 0 0 1
comment=PI DATA
}
C 46600 46400 1 180 0 connector6-2.sym
{
T 45900 43500 5 10 1 1 180 6 1
refdes=CONN2
T 46300 43550 5 10 0 0 180 0 1
device=CONNECTOR_6
T 46300 43350 5 10 0 0 180 0 1
footprint=usb-a-micro-male
T 44900 46200 5 10 1 1 0 0 1
comment=PI POWER
}
N 46600 45600 47600 45600 4
{
T 46600 45600 5 10 1 1 0 0 1
netname=0V
}
N 46600 46000 47600 46000 4
{
T 46600 46000 5 10 1 1 0 0 1
netname=0V
}
N 46600 44000 47600 44000 4
{
T 46600 44000 5 10 1 1 0 0 1
netname=5V0
}
N 46600 49700 47600 49700 4
{
T 46600 49700 5 10 1 1 0 0 1
netname=0V
}
N 46600 49300 47600 49300 4
{
T 46600 49300 5 10 1 1 0 0 1
netname=0V
}
N 46600 47700 47600 47700 4
{
T 46600 47700 5 10 1 1 0 0 1
netname=USB_VBUS
}
N 46600 48100 47600 48100 4
{
T 46600 48100 5 10 1 1 0 0 1
netname=USB_D-
}
N 46600 48500 47600 48500 4
{
T 46600 48500 5 10 1 1 0 0 1
netname=USB_D+
}
N 46600 48900 47600 48900 4
{
T 46600 48900 5 10 1 1 0 0 1
netname=0V
}
N 54100 48100 53200 48100 4
{
T 53700 48100 5 10 1 1 0 0 1
netname=0V
}
N 54100 48500 53200 48500 4
{
T 53700 48500 5 10 1 1 0 0 1
netname=0V
}
N 54100 48900 53200 48900 4
{
T 53300 48900 5 10 1 1 0 0 1
netname=USB_D+
}
N 54100 49300 53200 49300 4
{
T 53300 49300 5 10 1 1 0 0 1
netname=USB_D-
}
N 54100 49700 53200 49700 4
{
T 52900 49700 5 10 1 1 0 0 1
netname=USB_VBUS
}
T 47700 48900 9 10 1 0 0 0 1
USB OTG_ID
C 54100 45300 1 0 0 connector2-2.sym
{
T 54800 46600 5 10 1 1 0 6 1
refdes=CONN4
T 54400 46550 5 10 0 0 0 0 1
device=CONNECTOR_2
T 54400 46750 5 10 0 0 0 0 1
footprint=SIP2N
T 54900 45300 5 10 1 1 0 0 1
comment=POWER IN
T 54100 45300 5 10 0 1 0 0 1
footprint=JUMPER2
}
C 54100 42600 1 0 0 connector4-2.sym
{
T 54800 44700 5 10 1 1 0 6 1
refdes=CONN5
T 54400 44650 5 10 0 0 0 0 1
device=CONNECTOR_4
T 54400 44850 5 10 0 0 0 0 1
footprint=SIP4N
T 54900 42600 5 10 1 1 0 0 1
comment=USB BREAKOUT
T 54100 42600 5 10 0 1 0 0 1
value=JUMPER4
}
N 54100 46100 53300 46100 4
{
T 53600 46100 5 10 1 1 0 0 1
netname=5V0
}
N 54100 45700 53300 45700 4
{
T 53700 45700 5 10 1 1 0 0 1
netname=0V
}
N 54100 44200 53300 44200 4
{
T 53000 44200 5 10 1 1 0 0 1
netname=USB_VBUS
}
N 54100 43800 53300 43800 4
{
T 53300 43800 5 10 1 1 0 0 1
netname=USB_D-
}
N 54100 43400 53300 43400 4
{
T 53300 43400 5 10 1 1 0 0 1
netname=USB_D+
}
N 54100 43000 53300 43000 4
{
T 53800 43000 5 10 1 1 0 0 1
netname=0V
}
C 50600 49000 1 90 0 resistor-1.sym
{
T 50200 49300 5 10 0 0 90 0 1
device=RESISTOR
T 50300 49200 5 10 1 1 90 0 1
refdes=R1
T 50600 49000 5 10 1 1 0 0 1
value=150R
T 50600 49000 5 10 1 1 0 0 1
footprint=1206
}
C 50400 49000 1 270 0 led-2.sym
{
T 50700 48200 5 10 1 1 270 0 1
refdes=D1
T 51000 48900 5 10 0 0 270 0 1
device=LED
T 50400 49000 5 10 1 1 0 0 1
footprint=1206
}
N 50500 49900 51300 49900 4
{
T 50800 49900 5 10 1 1 0 0 1
netname=USB_VBUS
}
N 50500 48100 51300 48100 4
{
T 50900 48100 5 10 1 1 0 0 1
netname=0V
}
