v 20130925 2
C 40000 40000 0 0 0 title-B.sym
C 55100 44000 1 0 0 connector12-2.sym
{
T 55800 49300 5 10 1 1 0 6 1
refdes=GPS1
T 55400 49250 5 10 0 0 0 0 1
device=CONNECTOR_12
T 55400 49450 5 10 0 0 0 0 1
footprint=quectel-l86-gps-receiver
}
C 50300 45900 1 90 0 capacitor-1.sym
{
T 49600 46100 5 10 0 0 90 0 1
device=CAPACITOR
T 49800 46100 5 10 1 1 90 0 1
refdes=C2
T 49400 46100 5 10 0 0 90 0 1
symversion=0.1
T 50200 46500 5 10 1 1 0 0 1
value=0.1uF
T 50300 45900 5 10 0 0 0 0 1
footprint=1206
}
N 55100 48000 54700 48000 4
{
T 55000 48000 5 10 1 1 0 0 1
netname=0V
}
N 49100 47600 55100 47600 4
{
T 49200 47600 5 10 1 1 0 0 1
netname=3V3
}
N 49100 45900 53000 45900 4
{
T 49100 45700 5 10 1 1 0 0 1
netname=0V
}
N 54100 48400 55100 48400 4
{
T 54100 48400 5 10 1 1 0 0 1
netname=RXD
}
N 54100 48800 55100 48800 4
{
T 54100 48800 5 10 1 1 0 0 1
netname=TXD
}
N 54100 46400 55100 46400 4
{
T 53800 46400 5 10 1 1 0 0 1
netname=GPS_FORCE_ON
}
N 55100 44400 54700 44400 4
{
T 54700 44400 5 10 1 1 0 0 1
netname=0V
}
N 55100 45200 54100 45200 4
{
T 54200 45200 5 10 1 1 0 0 1
netname=GPS_RESET
}
C 47000 40800 1 0 0 connector8-2.sym
{
T 47700 44500 5 10 1 1 0 6 1
refdes=COMPASS1
T 47300 44450 5 10 0 0 0 0 1
device=CONNECTOR_8
T 47300 44650 5 10 0 0 0 0 1
footprint=rm3100-compass
}
N 44400 44000 47000 44000 4
{
T 46500 44000 5 10 1 1 0 0 1
netname=3V3
}
N 44400 43600 47000 43600 4
{
T 46500 43600 5 10 1 1 0 0 1
netname=0V
}
N 44400 42400 47000 42400 4
{
T 46500 42400 5 10 1 1 0 0 1
netname=SPI_SCLK
}
N 44400 42000 47000 42000 4
{
T 46500 42000 5 10 1 1 0 0 1
netname=SPI_MISO
}
N 44400 41600 47000 41600 4
{
T 46600 41600 5 10 1 1 0 0 1
netname=SPI_MOSI
}
N 44400 41200 47000 41200 4
{
T 46600 41200 5 10 1 1 0 0 1
netname=COMPASS_CS
}
N 44400 42800 47000 42800 4
{
T 46600 42800 5 10 1 1 0 0 1
netname=COMPASS_DRDY
}
C 62000 48100 1 0 0 connector6-2.sym
{
T 62700 51000 5 10 1 1 0 6 1
refdes=PX1
T 62300 50950 5 10 0 0 0 0 1
device=CONNECTOR_6
T 62300 51150 5 10 0 1 0 0 1
footprint=WS2813
}
C 64300 48100 1 0 0 connector6-2.sym
{
T 65000 51000 5 10 1 1 0 6 1
refdes=PX2
T 64600 50950 5 10 0 0 0 0 1
device=CONNECTOR_6
T 64600 51150 5 10 0 1 0 0 1
footprint=WS2813
}
C 66500 48100 1 0 0 connector6-2.sym
{
T 67200 51000 5 10 1 1 0 6 1
refdes=PX3
T 66800 50950 5 10 0 0 0 0 1
device=CONNECTOR_6
T 66800 51150 5 10 0 1 0 0 1
footprint=WS2813
}
C 68800 48100 1 0 0 connector6-2.sym
{
T 69500 51000 5 10 1 1 0 6 1
refdes=PX4
T 69100 50950 5 10 0 0 0 0 1
device=CONNECTOR_6
T 69100 51150 5 10 0 1 0 0 1
footprint=WS2813
}
C 71000 48100 1 0 0 connector6-2.sym
{
T 71700 51000 5 10 1 1 0 6 1
refdes=PX5
T 71300 50950 5 10 0 0 0 0 1
device=CONNECTOR_6
T 71300 51150 5 10 0 1 0 0 1
footprint=WS2813
}
C 73200 48100 1 0 0 connector6-2.sym
{
T 73900 51000 5 10 1 1 0 6 1
refdes=PX6
T 73500 50950 5 10 0 0 0 0 1
device=CONNECTOR_6
T 73500 51150 5 10 0 1 0 0 1
footprint=WS2813
}
N 62000 50100 61600 50100 4
N 61600 50100 61600 52800 4
N 73200 50100 73000 50100 4
N 73000 50100 73000 52100 4
N 73000 52100 61600 52100 4
{
T 72900 52100 5 10 1 1 0 0 1
netname=5V0
}
N 64300 50100 64100 50100 4
N 64100 50100 64100 52100 4
N 66500 50100 66300 50100 4
N 66300 50100 66300 52100 4
N 68800 50100 68600 50100 4
N 68600 50100 68600 52100 4
N 71000 50100 70800 50100 4
N 70800 50100 70800 52100 4
N 59400 49300 62000 49300 4
N 62000 48900 61300 48900 4
N 61300 48500 61300 51800 4
N 59900 51800 72700 51800 4
{
T 61300 51800 5 10 1 1 0 0 1
netname=0V
}
N 72700 51800 72700 48900 4
N 72700 48900 73200 48900 4
N 64300 48900 63800 48900 4
N 63800 48900 63800 51800 4
N 66500 48900 66000 48900 4
N 66000 48900 66000 51800 4
N 68800 48900 68300 48900 4
N 68300 48900 68300 51800 4
N 71000 48900 70500 48900 4
N 70500 48900 70500 51800 4
N 62000 49700 61000 49700 4
N 61000 49700 61000 51500 4
N 61000 51500 63500 51500 4
N 63500 47500 63500 51500 4
N 63500 49300 64300 49300 4
N 64300 49700 63200 49700 4
N 63200 49700 63200 51200 4
N 63200 51200 65700 51200 4
N 65700 47800 65700 51200 4
N 65700 49300 66500 49300 4
N 66500 49700 65400 49700 4
N 65400 49700 65400 51500 4
N 65400 51500 68000 51500 4
N 68000 47500 68000 51500 4
N 68000 49300 68800 49300 4
N 68800 49700 67700 49700 4
N 67700 49700 67700 51200 4
N 67700 51200 70200 51200 4
N 70200 47800 70200 51200 4
N 70200 49300 71000 49300 4
N 71000 49700 69900 49700 4
N 69900 49700 69900 51500 4
N 69900 51500 72400 51500 4
N 72400 47500 72400 51500 4
N 72400 49300 73200 49300 4
N 73200 49700 72000 49700 4
N 72000 49700 72000 51200 4
N 72000 51200 76100 51200 4
N 62000 48500 61300 48500 4
N 61000 49300 61000 47800 4
N 61000 47800 64300 47800 4
N 64300 47800 64300 48500 4
N 63500 47500 66500 47500 4
N 66500 47500 66500 48500 4
N 65700 47800 68800 47800 4
N 68800 47800 68800 48500 4
N 68000 47500 71000 47500 4
N 71000 47500 71000 48500 4
N 70200 47800 73200 47800 4
N 73200 47800 73200 48500 4
N 72400 47500 77400 47500 4
C 77400 48100 1 0 0 connector6-2.sym
{
T 77700 50950 5 10 0 0 0 0 1
device=CONNECTOR_6
T 77700 51150 5 10 0 1 0 0 1
footprint=WS2813
T 78100 51000 5 10 1 1 0 6 1
refdes=PX7
}
C 79700 48100 1 0 0 connector6-2.sym
{
T 80000 50950 5 10 0 0 0 0 1
device=CONNECTOR_6
T 80000 51150 5 10 0 1 0 0 1
footprint=WS2813
T 80400 51000 5 10 1 1 0 6 1
refdes=PX8
}
C 81900 48100 1 0 0 connector6-2.sym
{
T 82200 50950 5 10 0 0 0 0 1
device=CONNECTOR_6
T 82200 51150 5 10 0 1 0 0 1
footprint=WS2813
T 82600 51000 5 10 1 1 0 6 1
refdes=PX9
}
C 84200 48100 1 0 0 connector6-2.sym
{
T 84500 50950 5 10 0 0 0 0 1
device=CONNECTOR_6
T 84500 51150 5 10 0 1 0 0 1
footprint=WS2813
T 84900 51000 5 10 1 1 0 6 1
refdes=PX10
}
C 86400 48100 1 0 0 connector6-2.sym
{
T 86700 50950 5 10 0 0 0 0 1
device=CONNECTOR_6
T 86700 51150 5 10 0 1 0 0 1
footprint=WS2813
T 87100 51000 5 10 1 1 0 6 1
refdes=PX11
}
C 88600 48100 1 0 0 connector6-2.sym
{
T 88900 50950 5 10 0 0 0 0 1
device=CONNECTOR_6
T 88900 51150 5 10 0 1 0 0 1
footprint=WS2813
T 89300 51000 5 10 1 1 0 6 1
refdes=PX12
}
N 77400 50100 77000 50100 4
N 77000 50100 77000 52700 4
N 88600 50100 88400 50100 4
N 88400 50100 88400 52100 4
N 88400 52100 77000 52100 4
{
T 88300 52100 5 10 1 1 0 0 1
netname=5V0
}
N 79700 50100 79500 50100 4
N 79500 50100 79500 52100 4
N 81900 50100 81700 50100 4
N 81700 50100 81700 52100 4
N 84200 50100 84000 50100 4
N 84000 50100 84000 52100 4
N 86400 50100 86200 50100 4
N 86200 50100 86200 52100 4
N 77400 48900 76700 48900 4
N 76700 48900 76700 51800 4
N 75700 51800 88100 51800 4
{
T 76700 51800 5 10 1 1 0 0 1
netname=0V
}
N 88100 51800 88100 48900 4
N 88100 48900 88600 48900 4
N 79700 48900 79200 48900 4
N 79200 48900 79200 51800 4
N 81900 48900 81400 48900 4
N 81400 48900 81400 51800 4
N 84200 48900 83700 48900 4
N 83700 48900 83700 51800 4
N 86400 48900 85900 48900 4
N 85900 48900 85900 51800 4
N 77400 49700 76400 49700 4
N 76400 49700 76400 51500 4
N 76400 51500 78900 51500 4
N 78900 47500 78900 51500 4
N 78900 49300 79700 49300 4
N 79700 49700 78600 49700 4
N 78600 49700 78600 51200 4
N 78600 51200 81100 51200 4
N 81100 47800 81100 51200 4
N 81100 49300 81900 49300 4
N 81900 49700 80800 49700 4
N 80800 49700 80800 51500 4
N 80800 51500 83400 51500 4
N 83400 47500 83400 51500 4
N 83400 49300 84200 49300 4
N 84200 49700 83100 49700 4
N 83100 49700 83100 51200 4
N 83100 51200 85600 51200 4
N 85600 47800 85600 51200 4
N 85600 49300 86400 49300 4
N 86400 49700 85300 49700 4
N 85300 49700 85300 51500 4
N 85300 51500 87800 51500 4
N 87800 47200 87800 51500 4
N 87800 49300 88600 49300 4
N 88600 49700 87400 49700 4
N 87400 49700 87400 51200 4
N 87400 51200 89900 51200 4
N 76400 49300 76400 47800 4
N 76400 47800 79700 47800 4
N 79700 47800 79700 48500 4
N 78900 47500 81900 47500 4
N 81900 47500 81900 48500 4
N 81100 47800 84200 47800 4
N 84200 47800 84200 48500 4
N 83400 47500 86400 47500 4
N 86400 47500 86400 48500 4
N 85600 47800 88600 47800 4
N 88600 47800 88600 48500 4
N 77400 47500 77400 48500 4
N 76100 51200 76100 49300 4
N 76100 49300 77400 49300 4
C 62000 41700 1 0 0 connector6-2.sym
{
T 62300 44550 5 10 0 0 0 0 1
device=CONNECTOR_6
T 62300 44750 5 10 0 1 0 0 1
footprint=WS2813
T 62700 44600 5 10 1 1 0 6 1
refdes=PX13
}
C 64300 41700 1 0 0 connector6-2.sym
{
T 64600 44550 5 10 0 0 0 0 1
device=CONNECTOR_6
T 64600 44750 5 10 0 1 0 0 1
footprint=WS2813
T 65000 44600 5 10 1 1 0 6 1
refdes=PX14
}
C 66500 41700 1 0 0 connector6-2.sym
{
T 66800 44550 5 10 0 0 0 0 1
device=CONNECTOR_6
T 66800 44750 5 10 0 1 0 0 1
footprint=WS2813
T 67200 44600 5 10 1 1 0 6 1
refdes=PX15
}
C 68800 41700 1 0 0 connector6-2.sym
{
T 69100 44550 5 10 0 0 0 0 1
device=CONNECTOR_6
T 69100 44750 5 10 0 1 0 0 1
footprint=WS2813
T 69500 44600 5 10 1 1 0 6 1
refdes=PX16
}
C 71000 41700 1 0 0 connector6-2.sym
{
T 71300 44550 5 10 0 0 0 0 1
device=CONNECTOR_6
T 71300 44750 5 10 0 1 0 0 1
footprint=WS2813
T 71700 44600 5 10 1 1 0 6 1
refdes=PX17
}
C 73200 41700 1 0 0 connector6-2.sym
{
T 73500 44550 5 10 0 0 0 0 1
device=CONNECTOR_6
T 73500 44750 5 10 0 1 0 0 1
footprint=WS2813
T 73900 44600 5 10 1 1 0 6 1
refdes=PX18
}
N 62000 43700 61600 43700 4
N 61600 43700 61600 46300 4
N 73200 43700 73000 43700 4
N 73000 43700 73000 45700 4
N 73000 45700 61600 45700 4
{
T 72900 45700 5 10 1 1 0 0 1
netname=5V0
}
N 64300 43700 64100 43700 4
N 64100 43700 64100 45700 4
N 66500 43700 66300 43700 4
N 66300 43700 66300 45700 4
N 68800 43700 68600 43700 4
N 68600 43700 68600 45700 4
N 71000 43700 70800 43700 4
N 70800 43700 70800 45700 4
N 59400 42900 62000 42900 4
N 62000 42500 61300 42500 4
N 61300 42500 61300 45400 4
N 60500 45400 72700 45400 4
{
T 61300 45400 5 10 1 1 0 0 1
netname=0V
}
N 72700 45400 72700 42500 4
N 72700 42500 73200 42500 4
N 64300 42500 63800 42500 4
N 63800 42500 63800 45400 4
N 66500 42500 66000 42500 4
N 66000 42500 66000 45400 4
N 68800 42500 68300 42500 4
N 68300 42500 68300 45400 4
N 71000 42500 70500 42500 4
N 70500 42500 70500 45400 4
N 62000 43300 61000 43300 4
N 61000 43300 61000 45100 4
N 61000 45100 63500 45100 4
N 63500 41100 63500 45100 4
N 63500 42900 64300 42900 4
N 64300 43300 63200 43300 4
N 63200 43300 63200 44800 4
N 63200 44800 65700 44800 4
N 65700 41400 65700 44800 4
N 65700 42900 66500 42900 4
N 66500 43300 65400 43300 4
N 65400 43300 65400 45100 4
N 65400 45100 68000 45100 4
N 68000 41100 68000 45100 4
N 68000 42900 68800 42900 4
N 68800 43300 67700 43300 4
N 67700 43300 67700 44800 4
N 67700 44800 70200 44800 4
N 70200 41400 70200 44800 4
N 70200 42900 71000 42900 4
N 71000 43300 69900 43300 4
N 69900 43300 69900 45100 4
N 69900 45100 72400 45100 4
N 72400 41100 72400 45100 4
N 72400 42900 73200 42900 4
N 73200 43300 72000 43300 4
N 72000 43300 72000 44800 4
N 72000 44800 76100 44800 4
N 61000 42900 61000 41400 4
N 61000 41400 64300 41400 4
N 64300 41400 64300 42100 4
N 63500 41100 66500 41100 4
N 66500 41100 66500 42100 4
N 65700 41400 68800 41400 4
N 68800 41400 68800 42100 4
N 68000 41100 71000 41100 4
N 71000 41100 71000 42100 4
N 70200 41400 73200 41400 4
N 73200 41400 73200 42100 4
N 72400 41100 77400 41100 4
C 77400 41700 1 0 0 connector6-2.sym
{
T 77700 44550 5 10 0 0 0 0 1
device=CONNECTOR_6
T 77700 44750 5 10 0 1 0 0 1
footprint=WS2813
T 78100 44600 5 10 1 1 0 6 1
refdes=PX19
}
C 79700 41700 1 0 0 connector6-2.sym
{
T 80000 44550 5 10 0 0 0 0 1
device=CONNECTOR_6
T 80000 44750 5 10 0 1 0 0 1
footprint=WS2813
T 80400 44600 5 10 1 1 0 6 1
refdes=PX20
}
C 81900 41700 1 0 0 connector6-2.sym
{
T 82200 44550 5 10 0 0 0 0 1
device=CONNECTOR_6
T 82200 44750 5 10 0 1 0 0 1
footprint=WS2813
T 82600 44600 5 10 1 1 0 6 1
refdes=PX21
}
C 84200 41700 1 0 0 connector6-2.sym
{
T 84500 44550 5 10 0 0 0 0 1
device=CONNECTOR_6
T 84500 44750 5 10 0 1 0 0 1
footprint=WS2813
T 84900 44600 5 10 1 1 0 6 1
refdes=PX22
}
C 86400 41700 1 0 0 connector6-2.sym
{
T 86700 44550 5 10 0 0 0 0 1
device=CONNECTOR_6
T 86700 44750 5 10 0 1 0 0 1
footprint=WS2813
T 87100 44600 5 10 1 1 0 6 1
refdes=PX23
}
C 88600 41700 1 0 0 connector6-2.sym
{
T 88900 44550 5 10 0 0 0 0 1
device=CONNECTOR_6
T 88900 44750 5 10 0 1 0 0 1
footprint=WS2813
T 89300 44600 5 10 1 1 0 6 1
refdes=PX24
}
N 77400 43700 77000 43700 4
N 77000 43700 77000 46300 4
N 88600 43700 88400 43700 4
N 88400 43700 88400 45700 4
N 88400 45700 77000 45700 4
{
T 88300 45700 5 10 1 1 0 0 1
netname=5V0
}
N 79700 43700 79500 43700 4
N 79500 43700 79500 45700 4
N 81900 43700 81700 43700 4
N 81700 43700 81700 45700 4
N 84200 43700 84000 43700 4
N 84000 43700 84000 45700 4
N 86400 43700 86200 43700 4
N 86200 43700 86200 45700 4
N 77400 42500 76700 42500 4
N 76700 42500 76700 45400 4
N 76000 45400 88100 45400 4
{
T 76700 45400 5 10 1 1 0 0 1
netname=0V
}
N 88100 45400 88100 42500 4
N 88100 42500 88600 42500 4
N 79700 42500 79200 42500 4
N 79200 42500 79200 45400 4
N 81900 42500 81400 42500 4
N 81400 42500 81400 45400 4
N 84200 42500 83700 42500 4
N 83700 42500 83700 45400 4
N 86400 42500 85900 42500 4
N 85900 42500 85900 45400 4
N 77400 43300 76400 43300 4
N 76400 43300 76400 45100 4
N 76400 45100 78900 45100 4
N 78900 41100 78900 45100 4
N 78900 42900 79700 42900 4
N 79700 43300 78600 43300 4
N 78600 43300 78600 44800 4
N 78600 44800 81100 44800 4
N 81100 41400 81100 44800 4
N 81100 42900 81900 42900 4
N 81900 43300 80800 43300 4
N 80800 43300 80800 45100 4
N 80800 45100 83400 45100 4
N 83400 41100 83400 45100 4
N 83400 42900 84200 42900 4
N 84200 43300 83100 43300 4
N 83100 43300 83100 44800 4
N 83100 44800 85600 44800 4
N 85600 41400 85600 44800 4
N 85600 42900 86400 42900 4
N 86400 43300 85300 43300 4
N 85300 43300 85300 45100 4
N 85300 45100 87800 45100 4
N 87800 40800 87800 45100 4
N 87800 42900 88600 42900 4
N 88600 43300 87400 43300 4
N 87400 43300 87400 44800 4
N 87400 44800 89900 44800 4
N 76400 42900 76400 41400 4
N 76400 41400 79700 41400 4
N 79700 41400 79700 42100 4
N 78900 41100 81900 41100 4
N 81900 41100 81900 42100 4
N 81100 41400 84200 41400 4
N 84200 41400 84200 42100 4
N 83400 41100 86400 41100 4
N 86400 41100 86400 42100 4
N 85600 41400 88600 41400 4
N 88600 41400 88600 42100 4
N 77400 41100 77400 42100 4
N 76100 44800 76100 42900 4
N 76100 42900 77400 42900 4
C 62000 35300 1 0 0 connector6-2.sym
{
T 62300 38150 5 10 0 0 0 0 1
device=CONNECTOR_6
T 62300 38350 5 10 0 1 0 0 1
footprint=WS2813
T 62700 38200 5 10 1 1 0 6 1
refdes=PX25
}
C 64300 35300 1 0 0 connector6-2.sym
{
T 64600 38150 5 10 0 0 0 0 1
device=CONNECTOR_6
T 64600 38350 5 10 0 1 0 0 1
footprint=WS2813
T 65000 38200 5 10 1 1 0 6 1
refdes=PX26
}
C 66500 35300 1 0 0 connector6-2.sym
{
T 66800 38150 5 10 0 0 0 0 1
device=CONNECTOR_6
T 66800 38350 5 10 0 1 0 0 1
footprint=WS2813
T 67200 38200 5 10 1 1 0 6 1
refdes=PX27
}
C 68800 35300 1 0 0 connector6-2.sym
{
T 69100 38150 5 10 0 0 0 0 1
device=CONNECTOR_6
T 69100 38350 5 10 0 1 0 0 1
footprint=WS2813
T 69500 38200 5 10 1 1 0 6 1
refdes=PX28
}
C 71000 35300 1 0 0 connector6-2.sym
{
T 71300 38150 5 10 0 0 0 0 1
device=CONNECTOR_6
T 71300 38350 5 10 0 1 0 0 1
footprint=WS2813
T 71700 38200 5 10 1 1 0 6 1
refdes=PX29
}
C 73200 35300 1 0 0 connector6-2.sym
{
T 73500 38150 5 10 0 0 0 0 1
device=CONNECTOR_6
T 73500 38350 5 10 0 1 0 0 1
footprint=WS2813
T 73900 38200 5 10 1 1 0 6 1
refdes=PX30
}
N 62000 37300 61600 37300 4
N 61600 37300 61600 40000 4
N 73200 37300 73000 37300 4
N 73000 37300 73000 39300 4
N 73000 39300 61600 39300 4
{
T 72900 39300 5 10 1 1 0 0 1
netname=5V0
}
N 64300 37300 64100 37300 4
N 64100 37300 64100 39300 4
N 66500 37300 66300 37300 4
N 66300 37300 66300 39300 4
N 68800 37300 68600 37300 4
N 68600 37300 68600 39300 4
N 71000 37300 70800 37300 4
N 70800 37300 70800 39300 4
N 59400 36500 62000 36500 4
N 62000 36100 61300 36100 4
N 61300 36100 61300 39000 4
N 60400 39000 72700 39000 4
{
T 61300 39000 5 10 1 1 0 0 1
netname=0V
}
N 72700 39000 72700 36100 4
N 72700 36100 73200 36100 4
N 64300 36100 63800 36100 4
N 63800 36100 63800 39000 4
N 66500 36100 66000 36100 4
N 66000 36100 66000 39000 4
N 68800 36100 68300 36100 4
N 68300 36100 68300 39000 4
N 71000 36100 70500 36100 4
N 70500 36100 70500 39000 4
N 62000 36900 61000 36900 4
N 61000 36900 61000 38700 4
N 61000 38700 63500 38700 4
N 63500 34700 63500 38700 4
N 63500 36500 64300 36500 4
N 64300 36900 63200 36900 4
N 63200 36900 63200 38400 4
N 63200 38400 65700 38400 4
N 65700 35000 65700 38400 4
N 65700 36500 66500 36500 4
N 66500 36900 65400 36900 4
N 65400 36900 65400 38700 4
N 65400 38700 68000 38700 4
N 68000 34700 68000 38700 4
N 68000 36500 68800 36500 4
N 68800 36900 67700 36900 4
N 67700 36900 67700 38400 4
N 67700 38400 70200 38400 4
N 70200 35000 70200 38400 4
N 70200 36500 71000 36500 4
N 71000 36900 69900 36900 4
N 69900 36900 69900 38700 4
N 69900 38700 72400 38700 4
N 72400 34700 72400 38700 4
N 72400 36500 73200 36500 4
N 73200 36900 72000 36900 4
N 72000 36900 72000 38400 4
N 72000 38400 76100 38400 4
N 61000 36500 61000 35000 4
N 61000 35000 64300 35000 4
N 64300 35000 64300 35700 4
N 63500 34700 66500 34700 4
N 66500 34700 66500 35700 4
N 65700 35000 68800 35000 4
N 68800 35000 68800 35700 4
N 68000 34700 71000 34700 4
N 71000 34700 71000 35700 4
N 70200 35000 73200 35000 4
N 73200 35000 73200 35700 4
N 72400 34700 77400 34700 4
C 77400 35300 1 0 0 connector6-2.sym
{
T 77700 38150 5 10 0 0 0 0 1
device=CONNECTOR_6
T 77700 38350 5 10 0 1 0 0 1
footprint=WS2813
T 78100 38200 5 10 1 1 0 6 1
refdes=PX31
}
C 79700 35300 1 0 0 connector6-2.sym
{
T 80000 38150 5 10 0 0 0 0 1
device=CONNECTOR_6
T 80000 38350 5 10 0 1 0 0 1
footprint=WS2813
T 80400 38200 5 10 1 1 0 6 1
refdes=PX32
}
C 81900 35300 1 0 0 connector6-2.sym
{
T 82200 38150 5 10 0 0 0 0 1
device=CONNECTOR_6
T 82200 38350 5 10 0 1 0 0 1
footprint=WS2813
T 82600 38200 5 10 1 1 0 6 1
refdes=PX33
}
C 84200 35300 1 0 0 connector6-2.sym
{
T 84500 38150 5 10 0 0 0 0 1
device=CONNECTOR_6
T 84500 38350 5 10 0 1 0 0 1
footprint=WS2813
T 84900 38200 5 10 1 1 0 6 1
refdes=PX34
}
C 86400 35300 1 0 0 connector6-2.sym
{
T 86700 38150 5 10 0 0 0 0 1
device=CONNECTOR_6
T 86700 38350 5 10 0 1 0 0 1
footprint=WS2813
T 87100 38200 5 10 1 1 0 6 1
refdes=PX35
}
C 88600 35300 1 0 0 connector6-2.sym
{
T 88900 38150 5 10 0 0 0 0 1
device=CONNECTOR_6
T 88900 38350 5 10 0 1 0 0 1
footprint=WS2813
T 89300 38200 5 10 1 1 0 6 1
refdes=PX36
}
N 77400 37300 77000 37300 4
N 77000 37300 77000 39900 4
N 88600 37300 88400 37300 4
N 88400 37300 88400 39300 4
N 88400 39300 77000 39300 4
{
T 88300 39300 5 10 1 1 0 0 1
netname=5V0
}
N 79700 37300 79500 37300 4
N 79500 37300 79500 39300 4
N 81900 37300 81700 37300 4
N 81700 37300 81700 39300 4
N 84200 37300 84000 37300 4
N 84000 37300 84000 39300 4
N 86400 37300 86200 37300 4
N 86200 37300 86200 39300 4
N 77400 36100 76700 36100 4
N 76700 36100 76700 39000 4
N 75900 39000 88100 39000 4
{
T 76700 39000 5 10 1 1 0 0 1
netname=0V
}
N 88100 39000 88100 36100 4
N 88100 36100 88600 36100 4
N 79700 36100 79200 36100 4
N 79200 36100 79200 39000 4
N 81900 36100 81400 36100 4
N 81400 36100 81400 39000 4
N 84200 36100 83700 36100 4
N 83700 36100 83700 39000 4
N 86400 36100 85900 36100 4
N 85900 36100 85900 39000 4
N 77400 36900 76400 36900 4
N 76400 36900 76400 38700 4
N 76400 38700 78900 38700 4
N 78900 34700 78900 38700 4
N 78900 36500 79700 36500 4
N 79700 36900 78600 36900 4
N 78600 36900 78600 38400 4
N 78600 38400 81100 38400 4
N 81100 35000 81100 38400 4
N 81100 36500 81900 36500 4
N 81900 36900 80800 36900 4
N 80800 36900 80800 38700 4
N 80800 38700 83400 38700 4
N 83400 34700 83400 38700 4
N 83400 36500 84200 36500 4
N 84200 36900 83100 36900 4
N 83100 36900 83100 38400 4
N 83100 38400 85600 38400 4
N 85600 35000 85600 38400 4
N 85600 36500 86400 36500 4
N 86400 36900 85300 36900 4
N 85300 36900 85300 38700 4
N 85300 38700 87800 38700 4
N 87800 36500 87800 38700 4
N 87800 36500 88600 36500 4
N 76400 36500 76400 35000 4
N 76400 35000 79700 35000 4
N 79700 35000 79700 35700 4
N 78900 34700 81900 34700 4
N 81900 34700 81900 35700 4
N 81100 35000 84200 35000 4
N 84200 35000 84200 35700 4
N 83400 34700 86400 34700 4
N 86400 34700 86400 35700 4
N 85600 35000 88600 35000 4
N 88600 35000 88600 35700 4
N 77400 34700 77400 35700 4
N 76100 38400 76100 36500 4
N 76100 36500 77400 36500 4
N 87800 47200 59000 47200 4
N 59000 47200 59000 42100 4
N 59000 42100 62000 42100 4
N 87800 40800 59000 40800 4
N 59000 40800 59000 35700 4
N 59000 35700 62000 35700 4
N 89900 51200 89900 46800 4
N 89900 46800 59400 46800 4
N 59400 46800 59400 42900 4
N 89900 44800 89900 40400 4
N 89900 40400 59400 40400 4
N 59400 40400 59400 36500 4
C 59700 52800 1 270 0 capacitor-2.sym
{
T 60400 52600 5 10 0 0 270 0 1
device=POLARIZED_CAPACITOR
T 60200 52600 5 10 1 1 270 0 1
refdes=C4
T 60600 52600 5 10 0 0 270 0 1
symversion=0.1
T 59700 52800 5 10 1 1 0 0 1
value=22u
T 59700 52800 5 10 0 0 0 0 1
footprint=1206
}
C 60300 46300 1 270 0 capacitor-2.sym
{
T 61000 46100 5 10 0 0 270 0 1
device=POLARIZED_CAPACITOR
T 60800 46100 5 10 1 1 270 0 1
refdes=C6
T 61200 46100 5 10 0 0 270 0 1
symversion=0.1
T 60300 46300 5 10 1 1 0 0 1
value=22u
T 60300 46300 5 10 0 0 0 0 1
footprint=1206
}
C 60200 40000 1 270 0 capacitor-2.sym
{
T 60900 39800 5 10 0 0 270 0 1
device=POLARIZED_CAPACITOR
T 60700 39800 5 10 1 1 270 0 1
refdes=C8
T 61100 39800 5 10 0 0 270 0 1
symversion=0.1
T 60200 40000 5 10 1 1 0 0 1
value=22uF
T 60200 40000 5 10 0 0 0 0 1
footprint=1206
}
N 59900 51900 59900 51800 4
N 59900 52800 61600 52800 4
N 60500 46300 61600 46300 4
N 60400 39100 60400 39000 4
N 60400 40000 61600 40000 4
C 57800 48100 1 0 0 connector6-2.sym
{
T 58500 51000 5 10 1 1 0 6 1
refdes=U3
T 58100 50950 5 10 0 0 0 0 1
device=MAX3371EXT
T 58100 51150 5 10 0 0 0 0 1
footprint=SC70-6
}
N 57800 50500 57100 50500 4
{
T 57600 50500 5 10 1 1 0 0 1
netname=3V3
}
N 57800 50100 57100 50100 4
{
T 57700 50100 5 10 1 1 0 0 1
netname=0V
}
N 57800 49700 57100 49700 4
{
T 56900 49700 5 10 1 1 0 0 1
netname=PIXEL_PWM
}
N 56600 49300 57800 49300 4
N 57800 48900 57100 48900 4
{
T 57600 48900 5 10 1 1 0 0 1
netname=3V3
}
N 57800 48500 57100 48500 4
{
T 57600 48500 5 10 1 1 0 0 1
netname=5V0
}
N 56600 49300 56600 47800 4
N 56600 47800 59400 47800 4
N 59400 47800 59400 49300 4
C 44400 44400 1 180 0 connector8-2.sym
{
T 43700 40700 5 10 1 1 180 6 1
refdes=CONN4
T 44100 40750 5 10 0 0 180 0 1
device=CONNECTOR_8
T 44100 40550 5 10 0 0 180 0 1
footprint=JUMPER8
T 43700 44500 5 10 1 1 0 0 1
comment=SPI
}
C 39000 47300 1 180 0 connector3-2.sym
{
T 38300 45600 5 10 1 1 180 6 1
refdes=CONN3
T 38700 45650 5 10 0 0 180 0 1
device=CONNECTOR_3
T 38700 45450 5 10 0 0 180 0 1
footprint=JUMPER3
T 38300 47400 5 10 1 1 0 0 1
comment=AUX 3V3
}
N 39000 46500 40200 46500 4
{
T 39000 46500 5 10 1 1 0 0 1
netname=AUX_GPIO
}
N 39000 46100 40200 46100 4
{
T 39000 46100 5 10 1 1 0 0 1
netname=3V3
}
C 39000 50000 1 180 0 connector4-2.sym
{
T 38300 47900 5 10 1 1 180 6 1
refdes=CONN2
T 38700 47950 5 10 0 0 180 0 1
device=CONNECTOR_4
T 38700 47750 5 10 0 0 180 0 1
footprint=JUMPER4
T 38300 50100 5 10 1 1 0 0 1
comment=AUX 5V0
}
N 39000 48400 40200 48400 4
{
T 39000 48400 5 10 1 1 0 0 1
netname=5V0
}
N 39000 48800 40200 48800 4
{
T 39000 48800 5 10 1 1 0 0 1
netname=5V0
}
N 39000 49200 40200 49200 4
{
T 39000 49200 5 10 1 1 0 0 1
netname=0V
}
N 39000 49600 40200 49600 4
{
T 39000 49600 5 10 1 1 0 0 1
netname=0V
}
N 36900 30900 39500 30900 4
{
T 36900 30900 5 10 1 1 0 0 1
netname=0V
}
N 36900 32100 39100 32100 4
{
T 36900 32100 5 10 1 1 0 0 1
netname=USB_CC1
}
N 38200 29600 40000 29600 4
{
T 38200 29600 5 10 1 1 0 0 1
netname=USB_VIN
}
N 36900 34500 39100 34500 4
{
T 36900 34500 5 10 1 1 0 0 1
netname=USB_CC2
}
N 36900 35700 38200 35700 4
{
T 36900 35700 5 10 1 1 0 0 1
netname=0V
}
C 39200 31200 1 90 0 resistor-1.sym
{
T 38800 31500 5 10 0 0 90 0 1
device=RESISTOR
T 38900 31400 5 10 1 1 90 0 1
refdes=R3
T 39200 31200 5 10 1 1 0 0 1
value=5.1k
T 39700 31200 5 10 1 1 0 0 1
comment=10%
T 39200 31200 5 10 0 1 0 0 1
footprint=1206
}
C 39200 33600 1 90 0 resistor-1.sym
{
T 38800 33900 5 10 0 0 90 0 1
device=RESISTOR
T 38900 33800 5 10 1 1 90 0 1
refdes=R2
T 39200 33600 5 10 1 1 0 0 1
value=5.1k
T 39700 33600 5 10 1 1 0 0 1
comment=10%
T 39200 33600 5 10 0 1 0 0 1
footprint=1206
}
N 39100 31200 39100 30900 4
N 39100 32900 39100 33600 4
C 46000 29700 1 180 0 connector16-2.sym
{
T 45300 22800 5 10 1 1 180 6 1
refdes=U5
T 46100 22550 5 10 1 1 180 0 1
device=TPS6109
T 45700 22650 5 10 0 0 180 0 1
footprint=QFN16-TPS6109
}
N 46000 23300 47000 23300 4
{
T 46000 23300 5 10 1 1 0 0 1
netname=5V0
}
N 46000 23700 47000 23700 4
{
T 46000 23700 5 10 1 1 0 0 1
netname=BOOST_NC
}
N 46000 24100 47800 24100 4
{
T 46000 24100 5 10 1 1 0 0 1
netname=BOOST_SW
}
N 46000 24500 47800 24500 4
{
T 46000 24500 5 10 1 1 0 0 1
netname=BOOST_SW
}
N 46000 24900 47800 24900 4
{
T 46000 24900 5 10 1 1 0 0 1
netname=0V
}
N 46000 25300 47800 25300 4
{
T 46000 25300 5 10 1 1 0 0 1
netname=0V
}
N 46000 25700 47800 25700 4
{
T 46000 25700 5 10 1 1 0 0 1
netname=0V
}
N 46000 26100 57500 26100 4
{
T 46000 26100 5 10 1 1 0 0 1
netname=V_UNREG
T 53300 26200 5 10 1 1 0 0 1
netname=V_UNREG
}
N 46000 26500 47000 26500 4
{
T 46000 26500 5 10 1 1 0 0 1
netname=BOOST_LBI
}
N 46000 26900 47000 26900 4
{
T 46000 26900 5 10 1 1 0 0 1
netname=0V
T 46300 26900 5 10 1 1 0 0 1
comment=SYNC
}
N 46000 27300 47000 27300 4
{
T 46000 27300 5 10 1 1 0 0 1
netname=BOOST_EN
}
N 46000 27700 47000 27700 4
{
T 46000 27700 5 10 1 1 0 0 1
netname=BOOST_LBO
}
N 45900 28100 47000 28100 4
{
T 46000 28100 5 10 1 1 0 0 1
netname=0V
T 46400 28100 5 10 1 1 0 0 1
comment=LOGIC
}
N 46000 28500 50800 28500 4
{
T 46000 28500 5 10 1 1 0 0 1
netname=BOOST_FB
}
N 46000 28900 47000 28900 4
{
T 46000 28900 5 10 1 1 0 0 1
netname=5V0
}
N 46000 29300 47000 29300 4
{
T 46000 29300 5 10 1 1 0 0 1
netname=5V0
}
C 57600 28300 1 0 0 connector2-2.sym
{
T 59100 29600 5 10 1 1 0 6 1
refdes=POWER_SW
T 58100 29850 5 10 1 1 0 0 1
device=JST 2-PH
T 57900 29750 5 10 0 0 0 0 1
footprint=B2B-PH-SM4-TB
}
C 47800 24400 1 0 0 inductor-1.sym
{
T 48000 24900 5 10 0 0 0 0 1
device=INDUCTOR
T 48000 24700 5 10 1 1 0 0 1
refdes=L1
T 48000 25100 5 10 0 0 0 0 1
symversion=0.1
T 48300 24700 5 10 1 1 0 0 1
value=6.8uH
T 48900 24700 5 10 1 1 0 0 1
comment=min 2A
T 47800 24400 5 10 0 1 0 0 1
footprint=SRN5040
}
N 47800 24500 47800 24100 4
N 48700 24500 49600 24500 4
{
T 48800 24300 5 10 1 1 0 0 1
netname=V_UNREG
}
C 50900 28600 1 90 0 resistor-1.sym
{
T 50500 28900 5 10 0 0 90 0 1
device=RESISTOR
T 50600 28800 5 10 1 1 90 0 1
refdes=R14
T 50200 29300 5 10 1 1 0 0 1
value=1.80M
T 50900 28600 5 10 0 1 0 0 1
footprint=0805
T 50200 29100 5 10 1 1 0 0 1
comment=1%
}
C 50900 27500 1 90 0 resistor-1.sym
{
T 50500 27800 5 10 0 0 90 0 1
device=RESISTOR
T 50600 27700 5 10 1 1 90 0 1
refdes=R16
T 50300 28200 5 10 1 1 0 0 1
value=200k
T 50900 27500 5 10 0 1 0 0 1
footprint=0805
T 50200 28000 5 10 1 1 0 0 1
comment=0.5%
}
N 50800 22600 57500 22600 4
{
T 50900 22400 5 10 1 1 0 0 1
netname=0V
}
N 50800 28600 50800 28400 4
N 47000 29500 53700 29500 4
{
T 53400 29600 5 10 1 1 0 0 1
netname=5V0
}
N 50800 27500 52500 27500 4
{
T 50900 27300 5 10 1 1 0 0 1
netname=0V
}
C 52200 25100 1 90 0 capacitor-1.sym
{
T 51500 25300 5 10 0 0 90 0 1
device=CAPACITOR
T 51700 25300 5 10 1 1 90 0 1
refdes=C12
T 51300 25300 5 10 0 0 90 0 1
symversion=0.1
T 52100 25700 5 10 1 1 0 0 1
value=0.1uF
T 52200 25100 5 10 0 1 0 0 1
footprint=1206
}
C 51900 28600 1 90 0 capacitor-1.sym
{
T 51200 28800 5 10 0 0 90 0 1
device=CAPACITOR
T 51400 28800 5 10 1 1 90 0 1
refdes=C10
T 51000 28800 5 10 0 0 90 0 1
symversion=0.1
T 51800 29200 5 10 1 1 0 0 1
value=0.1uF
T 51900 28600 5 10 0 1 0 0 1
footprint=1206
}
C 52700 28600 1 90 0 capacitor-1.sym
{
T 52800 27700 5 10 1 1 90 0 1
device=10TPB150ML
T 52200 28800 5 10 1 1 90 0 1
refdes=C11
T 51800 28800 5 10 0 0 90 0 1
symversion=0.1
T 52600 29200 5 10 1 1 0 0 1
value=150uF
T 52700 28600 5 10 0 1 0 0 1
footprint=TPB-D3L
}
N 51700 27500 51700 28600 4
N 52500 27500 52500 28600 4
N 52000 22600 52000 25100 4
N 52800 22600 52800 25100 4
N 47000 28900 47000 29500 4
N 52000 26000 52000 26100 4
N 52800 26000 52800 26100 4
C 46100 39400 1 180 0 connector20-2.sym
{
T 45300 30800 5 10 1 1 180 6 1
refdes=U4
T 47000 30550 5 10 1 1 180 0 1
device=MCP73871-2CCI/ML
T 45700 30650 5 10 0 0 180 0 1
footprint=QFN20
}
N 46000 31300 47000 31300 4
{
T 46000 31300 5 10 1 1 0 0 1
netname=V_UNREG
}
N 46000 31700 50700 31700 4
{
T 46000 31700 5 10 1 1 0 0 1
netname=CHG_VPCC
}
N 46000 32100 49900 32100 4
{
T 46000 32100 5 10 1 1 0 0 1
netname=CHG_SEL
}
N 46000 32500 49500 32500 4
{
T 46000 32500 5 10 1 1 0 0 1
netname=CHG_PROG2
}
N 46000 32900 47000 32900 4
{
T 46000 32900 5 10 1 1 0 0 1
netname=CHG_THERM
}
N 46000 33300 47000 33300 4
{
T 46000 33300 5 10 1 1 0 0 1
netname=CHG_STAT_ONBAT
}
N 46000 33700 47000 33700 4
{
T 46000 33700 5 10 1 1 0 0 1
netname=CHG_STAT_CHGDONE
}
N 46000 34100 47000 34100 4
{
T 46000 34100 5 10 1 1 0 0 1
netname=CHG_STAT_ONCHG
}
N 46000 34500 51500 34500 4
{
T 46000 34500 5 10 1 1 0 0 1
netname=CHG_TE
T 51400 34500 5 10 1 1 0 0 1
netname=USB_VBUS
}
N 46000 34900 49900 34900 4
{
T 46000 34900 5 10 1 1 0 0 1
netname=0V
}
N 46000 35300 47000 35300 4
{
T 46000 35300 5 10 1 1 0 0 1
netname=0V
}
N 46000 35700 47600 35700 4
{
T 46000 35700 5 10 1 1 0 0 1
netname=CHG_PROG3
}
N 46000 36100 47600 36100 4
{
T 46000 36100 5 10 1 1 0 0 1
netname=CHG_PROG1
}
N 46000 36500 47000 36500 4
{
T 46000 36500 5 10 1 1 0 0 1
netname=V_BAT
}
N 46000 36900 47000 36900 4
{
T 46000 36900 5 10 1 1 0 0 1
netname=V_BAT
}
N 46000 37300 48800 37300 4
{
T 46000 37300 5 10 1 1 0 0 1
netname=V_BATSENSE
}
N 46000 37700 51500 37700 4
{
T 46000 37700 5 10 1 1 0 0 1
netname=CHG_EN
T 51400 37700 5 10 1 1 0 0 1
netname=USB_VBUS
}
N 46000 38100 47000 38100 4
{
T 46000 38100 5 10 1 1 0 0 1
netname=USB_VBUS
}
N 46000 38500 49300 38500 4
{
T 46000 38500 5 10 1 1 0 0 1
netname=USB_VBUS
}
N 46000 38900 47000 38900 4
{
T 46000 38900 5 10 1 1 0 0 1
netname=V_UNREG
}
N 47000 36500 47000 37300 4
C 49000 36400 1 90 0 capacitor-1.sym
{
T 48300 36600 5 10 0 0 90 0 1
device=CAPACITOR
T 48500 36600 5 10 1 1 90 0 1
refdes=C7
T 48100 36600 5 10 0 0 90 0 1
symversion=0.1
T 48200 37000 5 10 1 1 0 0 1
value=22uF
T 49000 36400 5 10 0 1 0 0 1
footprint=1206
}
C 49500 37600 1 90 0 capacitor-1.sym
{
T 48800 37800 5 10 0 0 90 0 1
device=CAPACITOR
T 49000 37800 5 10 1 1 90 0 1
refdes=C3
T 48600 37800 5 10 0 0 90 0 1
symversion=0.1
T 49500 38200 5 10 1 1 0 0 1
value=22uF
T 49500 37600 5 10 0 1 0 0 1
footprint=1206
}
C 50800 30800 1 90 0 resistor-1.sym
{
T 50400 31100 5 10 0 0 90 0 1
device=RESISTOR
T 50500 31000 5 10 1 1 90 0 1
refdes=R7
T 50800 30800 5 10 1 1 0 0 1
value=100k
T 50800 30800 5 10 0 1 0 0 1
footprint=1206
}
C 50800 31900 1 90 0 resistor-1.sym
{
T 50400 32200 5 10 0 0 90 0 1
device=RESISTOR
T 50500 32100 5 10 1 1 90 0 1
refdes=R6
T 50800 31900 5 10 1 1 0 0 1
value=270k
T 50800 31900 5 10 0 1 0 0 1
footprint=1206
}
N 50700 31700 50700 31900 4
N 50700 30800 51500 30800 4
{
T 51400 30800 5 10 1 1 0 0 1
netname=0V
}
N 49500 32800 51500 32800 4
{
T 51400 32800 5 10 1 1 0 0 1
netname=USB_VBUS
}
N 49900 32100 49900 32800 4
N 49500 32500 49500 32800 4
N 47000 38100 47000 38500 4
N 49300 34900 49300 37600 4
C 47600 36000 1 0 0 resistor-1.sym
{
T 47900 36400 5 10 0 0 0 0 1
device=RESISTOR
T 47500 36200 5 10 1 1 0 0 1
refdes=R4
T 48000 36300 5 10 1 1 0 0 1
value=1k
T 47600 36000 5 10 0 1 0 0 1
footprint=1206
}
C 47600 35600 1 0 0 resistor-1.sym
{
T 47900 36000 5 10 0 0 0 0 1
device=RESISTOR
T 48000 35400 5 10 1 1 0 0 1
value=100k
T 47500 35800 5 10 1 1 0 0 1
refdes=R5
T 47600 35600 5 10 0 1 0 0 1
footprint=1206
}
N 48800 34900 48800 36400 4
N 48500 36100 48600 36100 4
N 48600 34900 48600 36100 4
N 48500 35700 48500 34900 4
N 47000 35300 47000 34900 4
T 49600 36100 9 10 1 0 0 0 1
PROG1 controls charge rate, 1000A/R = 1A @ 1k value
C 53400 33400 1 0 0 resistor-1.sym
{
T 53700 33800 5 10 0 0 0 0 1
device=RESISTOR
T 53600 33700 5 10 1 1 0 0 1
refdes=R9
T 53400 33400 5 10 0 1 0 0 1
footprint=1206
T 54100 33600 5 10 1 1 0 0 1
value=0R
}
C 54800 32600 1 90 0 resistor-1.sym
{
T 54400 32900 5 10 0 0 90 0 1
device=RESISTOR
T 54500 32500 5 10 1 1 90 0 1
refdes=THERM
T 54800 32600 5 10 0 1 0 0 1
footprint=1206
T 53500 31700 5 10 1 1 0 0 1
comment=10k NTC Thermistor
T 54800 32600 5 10 0 0 0 0 1
value=3630 ± 3%
}
C 55400 32600 1 90 0 resistor-1.sym
{
T 55000 32900 5 10 0 0 90 0 1
device=RESISTOR
T 55100 32800 5 10 1 1 90 0 1
refdes=R15
T 55400 32600 5 10 0 1 0 0 1
footprint=1206
T 55400 33300 5 10 1 1 0 0 1
value=180k
T 55400 33100 5 10 1 1 0 0 1
comment=0.1%
}
N 52800 33500 53400 33500 4
{
T 52000 33500 5 10 1 1 0 0 1
netname=CHG_THERM
}
N 54300 33500 55300 33500 4
N 54700 32600 54700 32000 4
N 54700 32000 55900 32000 4
{
T 55700 32000 5 10 1 1 0 0 1
netname=0V
}
N 55300 32600 55300 32000 4
T 55900 32900 9 10 1 0 0 0 2
B=3630, Rseries=0, Rparallel=180k
Gives 1.98-42.22°C charge range
N 47800 24900 47800 25700 4
C 55800 35000 1 90 0 resistor-1.sym
{
T 55400 35300 5 10 0 0 90 0 1
device=RESISTOR
T 55500 35200 5 10 1 1 90 0 1
refdes=R11
T 55200 35700 5 10 1 1 0 0 1
value=150R
T 55800 35000 5 10 0 1 0 0 1
footprint=1206
}
C 57200 36500 1 90 0 resistor-1.sym
{
T 56800 36800 5 10 0 0 90 0 1
device=RESISTOR
T 56900 36700 5 10 1 1 90 0 1
refdes=R10
T 56600 37200 5 10 1 1 0 0 1
value=150R
T 57200 36500 5 10 0 1 0 0 1
footprint=1206
}
C 56500 36500 1 90 0 resistor-1.sym
{
T 56100 36800 5 10 0 0 90 0 1
device=RESISTOR
T 56200 36700 5 10 1 1 90 0 1
refdes=R8
T 55900 37200 5 10 1 1 0 0 1
value=150R
T 56500 36500 5 10 0 1 0 0 1
footprint=1206
}
C 56300 38600 1 270 0 led-2.sym
{
T 56600 37800 5 10 1 1 270 0 1
refdes=D2
T 56900 38500 5 10 0 0 270 0 1
device=LED
T 56700 38300 5 10 1 1 90 0 1
comment=ORNG/CHARGE
T 56300 38600 5 10 0 1 0 0 1
footprint=1206
}
C 57000 38600 1 270 0 led-2.sym
{
T 57300 37800 5 10 1 1 270 0 1
refdes=D3
T 57600 38500 5 10 0 0 270 0 1
device=LED
T 57400 38300 5 10 1 1 90 0 1
comment=GRN/DONE
T 57000 38600 5 10 0 1 0 0 1
footprint=1206
}
C 55600 38600 1 270 0 led-2.sym
{
T 55900 37800 5 10 1 1 270 0 1
refdes=D1
T 56200 38500 5 10 0 0 270 0 1
device=LED
T 56000 38300 5 10 1 1 90 0 1
comment=YLW/POWER
T 55600 38600 5 10 0 1 0 0 1
footprint=1206
}
N 54900 38600 57100 38600 4
{
T 54400 38700 5 10 1 1 0 0 1
netname=USB_VBUS
}
N 55700 35000 58000 35000 4
{
T 57900 35100 5 10 1 1 0 0 1
netname=0V
}
N 55700 37700 55700 35900 4
N 56400 37700 56400 37400 4
N 57100 37700 57100 37400 4
N 56400 36300 58000 36300 4
{
T 57200 36400 5 10 1 1 0 0 1
netname=CHG_STAT_ONCHG
}
N 57100 35900 58000 35900 4
{
T 57200 36000 5 10 1 1 0 0 1
netname=CHG_STAT_CHGDONE
}
T 55400 34500 9 10 1 0 0 0 2
Assume LED Vdrop 2-2.1V, 20mA drive
current, no activation @ 2.2mA
C 55100 25000 1 90 0 resistor-1.sym
{
T 54700 25300 5 10 0 0 90 0 1
device=RESISTOR
T 54800 25200 5 10 1 1 90 0 1
refdes=R20
T 54400 25700 5 10 1 1 0 0 1
value=1.80M
T 55100 25000 5 10 0 0 0 0 1
footprint=0805
}
C 55100 23800 1 90 0 resistor-1.sym
{
T 54700 24100 5 10 0 0 90 0 1
device=RESISTOR
T 54800 24000 5 10 1 1 90 0 1
refdes=R21
T 54500 24500 5 10 1 1 0 0 1
value=330k
T 55100 23800 5 10 0 0 0 0 1
footprint=0805
}
C 57600 23800 1 90 0 resistor-1.sym
{
T 57200 24100 5 10 0 0 90 0 1
device=RESISTOR
T 57300 24000 5 10 1 1 90 0 1
refdes=R22
T 56900 24500 5 10 1 1 0 0 1
value=68R
T 57600 23800 5 10 0 0 0 0 1
footprint=1206
}
N 57500 26100 57500 25900 4
N 55000 25900 55000 26100 4
N 55000 25000 55000 24700 4
N 57500 24900 57500 24700 4
N 57500 23500 57500 23800 4
N 55000 23800 55000 22600 4
N 55000 24800 55900 24800 4
{
T 55000 24800 5 10 1 1 0 0 1
netname=BOOST_LBI
}
C 57400 23500 1 270 0 led-2.sym
{
T 57700 22700 5 10 1 1 270 0 1
refdes=D4
T 58000 23400 5 10 0 0 270 0 1
device=LED
T 59100 23100 5 10 1 1 180 0 1
comment=RED/LOWBAT
T 57400 23500 5 10 0 1 0 0 1
footprint=1206
}
C 57600 30200 1 0 0 connector2-2.sym
{
T 58300 31500 5 10 1 1 0 6 1
refdes=BAT
T 58000 31750 5 10 1 1 0 0 1
device=JST 2-PH
T 57900 31650 5 10 0 0 0 0 1
footprint=B2B-PH-SM4-TB
}
N 57600 30600 56700 30600 4
{
T 56800 30600 5 10 1 1 0 0 1
netname=0V
}
N 57600 31000 56700 31000 4
{
T 56800 31100 5 10 1 1 0 0 1
netname=V_BAT
}
C 55400 29000 1 0 0 resistor-1.sym
{
T 55700 29400 5 10 0 0 0 0 1
device=RESISTOR
T 55600 29300 5 10 1 1 0 0 1
refdes=R17
T 56000 29300 5 10 1 1 0 0 1
value=5.1k
T 55400 29000 5 10 0 0 0 0 1
footprint=1206
}
C 56400 27800 1 90 0 resistor-1.sym
{
T 56000 28100 5 10 0 0 90 0 1
device=RESISTOR
T 56100 28000 5 10 1 1 90 0 1
refdes=R19
T 55800 28500 5 10 1 1 0 0 1
value=100k
T 56400 27800 5 10 0 0 0 0 1
footprint=1206
}
N 54600 28700 56600 28700 4
{
T 54400 28700 5 10 1 1 0 0 1
netname=BOOST_EN
}
N 56300 29100 57600 29100 4
N 55400 29100 54600 29100 4
{
T 54500 29100 5 10 1 1 0 0 1
netname=V_UNREG
}
T 57100 27600 9 10 1 0 0 0 1
Guard against miswired battery
N 56300 27800 56300 27500 4
N 55100 27500 56300 27500 4
{
T 55700 27500 5 10 1 1 0 0 1
netname=0V
}
C 56600 28600 1 0 0 resistor-1.sym
{
T 56900 29000 5 10 0 0 0 0 1
device=RESISTOR
T 56800 28900 5 10 1 1 0 0 1
refdes=R18
T 57300 28800 5 10 1 1 0 0 1
value=1k
T 56600 28600 5 10 0 1 0 0 1
footprint=1206
}
N 57500 28700 57600 28700 4
C 44600 46100 1 0 0 raspberrypi-40.sym
{
T 45200 54500 5 10 1 1 0 0 1
device=Raspberry Pi 3 A+
T 45200 54200 5 10 1 1 0 0 1
refdes=U1
T 45700 54400 5 10 0 0 0 0 1
footprint=HEADER40_2
}
N 46000 53900 47000 53900 4
{
T 46000 53900 5 10 1 1 0 0 1
netname=5V0
}
N 46000 53500 47000 53500 4
{
T 46000 53500 5 10 1 1 0 0 1
netname=5V0
}
N 46000 53100 47000 53100 4
{
T 46000 53100 5 10 1 1 0 0 1
netname=0V
}
N 44600 46300 43600 46300 4
{
T 44300 46300 5 10 1 1 0 0 1
netname=0V
}
N 46000 47500 47000 47500 4
{
T 46000 47500 5 10 1 1 0 0 1
netname=0V
}
N 46000 48300 47000 48300 4
{
T 46000 48300 5 10 1 1 0 0 1
netname=0V
}
N 44600 49100 43600 49100 4
{
T 44300 49100 5 10 1 1 0 0 1
netname=0V
}
N 46000 50300 47000 50300 4
{
T 46000 50300 5 10 1 1 0 0 1
netname=0V
}
N 46000 51500 47000 51500 4
{
T 46000 51500 5 10 1 1 0 0 1
netname=0V
}
N 44600 52300 43600 52300 4
{
T 44300 52300 5 10 1 1 0 0 1
netname=0V
}
N 46000 52700 47000 52700 4
{
T 46000 52700 5 10 1 1 0 0 1
netname=TXD
}
N 46000 52300 47000 52300 4
{
T 46000 52300 5 10 1 1 0 0 1
netname=RXD
}
N 46000 51900 47000 51900 4
{
T 46000 51900 5 10 1 1 0 0 1
netname=PIXEL_PWM
}
N 46000 51100 47000 51100 4
{
T 46000 51100 5 10 1 1 0 0 1
netname=COMPASS_DRDY
}
N 46000 50700 47000 50700 4
{
T 46000 50700 5 10 1 1 0 0 1
netname=COMPASS_CS
}
N 44600 52700 43600 52700 4
{
T 42900 52700 5 10 1 1 0 0 1
netname=CHG_STAT_ONBAT
}
N 44600 50300 43600 50300 4
{
T 43700 50300 5 10 1 1 0 0 1
netname=SPI_MOSI
}
N 44600 49900 43600 49900 4
{
T 43700 49900 5 10 1 1 0 0 1
netname=SPI_MISO
}
N 44600 49500 43600 49500 4
{
T 43700 49500 5 10 1 1 0 0 1
netname=SPI_SCLK
}
N 46000 49900 47000 49900 4
N 44600 46700 43600 46700 4
{
T 43500 46700 5 10 1 1 0 0 1
netname=GPS_RESET
}
N 44600 47100 43600 47100 4
{
T 43100 47100 5 10 1 1 0 0 1
netname=GPS_FORCE_ON
}
C 39000 53700 1 180 0 connector6-2.sym
{
T 38300 50800 5 10 1 1 180 6 1
refdes=CONN1
T 38700 50850 5 10 0 0 180 0 1
device=JST SM06B-GHS-TB
T 38700 50650 5 10 0 0 180 0 1
footprint=SM06B-GHS-TB
T 38300 53800 5 10 1 1 0 0 1
comment=FLARM
}
N 39000 51300 40100 51300 4
{
T 39000 51300 5 10 1 1 0 0 1
netname=5V0
}
N 39000 51700 40100 51700 4
{
T 39000 51700 5 10 1 1 0 0 1
netname=RXD
}
N 39000 52100 40100 52100 4
{
T 39000 52100 5 10 1 1 0 0 1
netname=TXD
}
N 39000 52500 40100 52500 4
N 39000 52900 40100 52900 4
N 39000 53300 40100 53300 4
{
T 39000 53300 5 10 1 1 0 0 1
netname=0V
}
N 46000 49100 47000 49100 4
{
T 46000 49100 5 10 1 1 0 0 1
netname=SPI_AUX_CE
}
N 44400 43200 45400 43200 4
{
T 44400 43200 5 10 1 1 0 0 1
netname=SPI_AUX_CE
}
N 39000 46900 40200 46900 4
{
T 39000 46900 5 10 1 1 0 0 1
netname=0V
}
N 46000 47900 47000 47900 4
{
T 46000 47900 5 10 1 1 0 0 1
netname=AUX_GPIO
}
C 37900 42400 1 0 0 switch-dip6-1.sym
{
T 39000 44575 5 8 0 0 0 0 1
device=SWITCH_DIP6
T 38200 44650 5 10 1 1 0 0 1
refdes=U2
T 38200 42200 5 10 1 1 0 0 1
comment=CONFIG
T 37900 42400 5 10 0 0 0 0 1
footprint=SBS-61006-dip-switch
}
N 39200 42800 39200 44300 4
N 39200 42800 40100 42800 4
{
T 39700 42800 5 10 1 1 0 0 1
netname=0V
}
N 37900 44300 37000 44300 4
{
T 37400 44300 5 10 1 1 0 0 1
netname=DIP_1
}
N 37900 44000 37000 44000 4
{
T 37400 44000 5 10 1 1 0 0 1
netname=DIP_2
}
N 37900 43700 37000 43700 4
{
T 37400 43700 5 10 1 1 0 0 1
netname=DIP_3
}
N 37900 43400 37000 43400 4
{
T 37400 43400 5 10 1 1 0 0 1
netname=DIP_4
}
N 37900 43100 37000 43100 4
{
T 37400 43100 5 10 1 1 0 0 1
netname=DIP_5
}
N 37900 42800 37000 42800 4
{
T 37400 42800 5 10 1 1 0 0 1
netname=DIP_6
}
N 46000 46300 47000 46300 4
{
T 46000 46300 5 10 1 1 0 0 1
netname=DIP_1
}
N 46000 46700 47000 46700 4
{
T 46000 46700 5 10 1 1 0 0 1
netname=DIP_2
}
N 46000 47100 47000 47100 4
{
T 46000 47100 5 10 1 1 0 0 1
netname=DIP_3
}
N 44600 47500 43600 47500 4
{
T 44000 47500 5 10 1 1 0 0 1
netname=DIP_4
}
N 44600 47900 43600 47900 4
{
T 44000 47900 5 10 1 1 0 0 1
netname=DIP_5
}
N 44600 48300 43600 48300 4
{
T 44000 48300 5 10 1 1 0 0 1
netname=DIP_6
}
T 58300 22200 9 10 1 0 0 0 2
Assume LED Vdrop 1.85V, 20mA drive
current, no activation @ 2.2mA
N 49100 47600 49100 46800 4
N 50100 46800 50100 47600 4
C 52100 47100 1 0 0 resistor-1.sym
{
T 52400 47500 5 10 0 0 0 0 1
device=RESISTOR
T 52100 46900 5 10 1 1 0 0 1
refdes=R1
T 52700 47300 5 10 1 1 0 0 1
value=5.1k
T 52100 47100 5 10 0 1 0 0 1
footprint=1206
}
C 53200 46300 1 90 0 zener-1.sym
{
T 52600 46700 5 10 0 0 90 0 1
device=MM3Z3V9ST1G
T 52700 46600 5 10 1 1 90 0 1
refdes=Z1
T 53200 46300 5 10 0 0 0 0 1
footprint=0805
T 51600 46300 5 10 1 1 0 0 1
comment=MM3Z3V9ST1G
T 53300 46700 5 10 1 1 0 0 1
value=4.2V
}
N 53000 47200 55100 47200 4
N 53000 45900 53000 46300 4
N 52100 47200 51400 47200 4
{
T 51400 47200 5 10 1 1 0 0 1
netname=V_BAT
}
C 62200 33400 1 180 0 connector8-2.sym
{
T 61500 29700 5 10 1 1 180 6 1
refdes=U6
T 63000 29450 5 10 1 1 180 0 1
device=BD33IA5WEFJ-E2
T 61900 29550 5 10 0 0 180 0 1
footprint=HTSOP-J8
T 61500 33600 5 10 1 1 0 0 1
value=3V3 REG
}
N 62200 30200 65100 30200 4
{
T 62200 30200 5 10 1 1 0 0 1
netname=3V3
}
N 62200 30600 63400 30600 4
{
T 62200 30600 5 10 1 1 0 0 1
netname=3V3
}
N 62200 31000 63400 31000 4
{
T 62200 31000 5 10 1 1 0 0 1
netname=0V
}
N 62200 31800 63400 31800 4
{
T 62200 31800 5 10 1 1 0 0 1
netname=5V0
}
N 62200 33000 65100 33000 4
{
T 62200 33000 5 10 1 1 0 0 1
netname=5V0
}
C 65300 29300 1 90 0 capacitor-1.sym
{
T 64600 29500 5 10 0 0 90 0 1
device=CAPACITOR
T 64800 29500 5 10 1 1 90 0 1
refdes=C16
T 64400 29500 5 10 0 0 90 0 1
symversion=0.1
T 65200 29900 5 10 1 1 0 0 1
value=22uF
T 65300 29300 5 10 0 1 0 0 1
footprint=1206
}
N 64300 29300 66400 29300 4
{
T 66100 29300 5 10 1 1 0 0 1
netname=0V
}
C 65300 32100 1 90 0 capacitor-1.sym
{
T 64600 32300 5 10 0 0 90 0 1
device=CAPACITOR
T 64800 32300 5 10 1 1 90 0 1
refdes=C15
T 64400 32300 5 10 0 0 90 0 1
symversion=0.1
T 65200 32700 5 10 1 1 0 0 1
value=22uF
T 65300 32100 5 10 0 1 0 0 1
footprint=1206
}
N 64300 32100 66400 32100 4
{
T 66100 32100 5 10 1 1 0 0 1
netname=0V
}
T 63500 30600 9 10 1 0 0 0 1
SENSE
T 63500 31800 9 10 1 0 0 0 1
EN
C 53000 25100 1 90 0 capacitor-1.sym
{
T 53100 24200 5 10 1 1 90 0 1
device=10TPB150ML
T 52500 25300 5 10 1 1 90 0 1
refdes=C13
T 52100 25300 5 10 0 0 90 0 1
symversion=0.1
T 52900 25700 5 10 1 1 0 0 1
value=150uF
T 53000 25100 5 10 0 1 0 0 1
footprint=TPB-D3L
}
T 50100 29600 9 10 1 0 0 0 1
4.93 < Vout < 5.07
C 40000 29500 1 0 0 fuse-1.sym
{
T 40200 30100 5 10 1 1 0 0 1
device=MF-MSMF260-2
T 40200 29700 5 10 1 1 0 0 1
refdes=F1
T 40200 30100 5 10 0 0 0 0 1
symversion=0.1
T 40200 29900 5 10 1 1 0 0 1
comment=2.6A / TRIP 5.2A @ 5s
T 40000 29500 5 10 0 2 0 0 1
footprint=MF-MSMF260-2
}
C 42200 28700 1 90 0 zener-1.sym
{
T 43200 29200 5 10 1 1 180 0 1
device=SMBJ5.0A
T 41700 29000 5 10 1 1 90 0 1
refdes=Z2
T 42200 28700 5 10 0 0 0 0 1
footprint=DO214AA
}
N 41000 29600 43100 29600 4
{
T 42100 29600 5 10 1 1 0 0 1
netname=USB_VBUS
}
N 42000 28700 43100 28700 4
{
T 42800 28700 5 10 1 1 0 0 1
netname=0V
}
T 51000 31000 9 10 1 0 0 0 3
Charging slows down when USB
supply drops to 4.43V

T 49600 35700 9 10 1 0 0 0 1
Stop charging when current <10mA (1000/PROG3)
C 56900 24900 1 0 0 mosfet-p-sot23.sym
{
T 57800 25400 5 10 1 1 0 0 1
refdes=Q1
T 58200 25400 5 10 0 1 0 0 1
footprint=sot23-3-123
}
N 56900 25400 56000 25400 4
{
T 55600 25500 5 10 1 1 0 0 1
netname=BOOST_LBO
}
T 36995 22175 8 10 1 1 0 0 1
netname=BOOST_LBO
C 36900 36100 1 180 0 connector13-2.sym
{
T 36200 30400 5 10 1 1 180 6 1
refdes=USB
T 36600 30450 5 10 0 0 180 0 1
device=Valcon CSP-USC16-TR
T 36600 30250 5 10 0 0 180 0 1
footprint=usb-c-female-ra-valcon-csp-usc16-tr
}
N 36900 31300 38700 31300 4
{
T 36900 31300 5 10 1 1 0 0 1
netname=USB_VIN
}
N 39100 32900 39700 32900 4
{
T 39400 32900 5 10 1 1 0 0 1
netname=0V
}
N 36900 35300 38200 35300 4
{
T 36900 35300 5 10 1 1 0 0 1
netname=0V
}
N 36900 34900 38200 34900 4
{
T 36900 34900 5 10 1 1 0 0 1
netname=USB_VIN
}
N 56400 36500 56400 36300 4
N 57100 36500 57100 35900 4
